{
	"import": {
		"models": {
			"auth": "http/auth/m.requests.json",
			"shared": "http/shared/m.shared.json"
		},
		"handlers": {
			"password": "http/auth/h.password.json"
		}
	},

	"handlers": {
		"/login": {
			"request": {
				"method": "POST",
				"body": "models[auth].LoginRequest"
			},
			"response": {
				"body": "models[auth].LoginResponse"
			}
		},
		"/password": "handlers[password]",
		"/has/email": {
			"request": {
				"method": "GET",
				"query": "models[shared].StringQueryValue"
			},
			"response": {
				"body": "models[shared].StringQueryValue"
			}
		},
		"/has/username": {
			"request": {
				"method": "POST",
				"body": "models[auth].LoginRequest"
			},
			"response": {
				"body": "models[auth].LoginResponse"
			}
		}
	}
}