{
    "name": "local",
    "http": {
        "ports": [
            {
                "value": 8080
            }
        ]
    },
    "ws": {
        "port": {
            "value": 5050
        }
    },
    "repositories": {
        "default": {
            "type": "NoSQL",
            "provider": "mongoDB",
            "connection": {
                "urls": [ "localhost:27072" ],
                "database": "foodex"
            },
            "credentials": {
                "username": "admin",
                "password": "admin"
            }
        }
    },
    "properties": {

    }
}